<?xml version="1.0" encoding="UTF-8" standalone="no"?>
<svg
   version="1.1"
   id="Layer_1"
   x="0px"
   y="0px"
   viewBox="0 0 1822 1652.7"
   enable-background="new 0 0 1822 1652.7"
   xml:space="preserve"
   sodipodi:docname="Duniter-Heart.svg"
   inkscape:version="1.1.2 (0a00cf5339, 2022-02-04, custom)"
   xmlns:inkscape="http://www.inkscape.org/namespaces/inkscape"
   xmlns:sodipodi="http://sodipodi.sourceforge.net/DTD/sodipodi-0.dtd"
   xmlns:xlink="http://www.w3.org/1999/xlink"
   xmlns="http://www.w3.org/2000/svg"
   xmlns:svg="http://www.w3.org/2000/svg"><defs
   id="defs16"><pattern
   inkscape:collect="always"
   xlink:href="#pattern6540"
   id="pattern6898"
   patternTransform="translate(153.29328,-716.33074)" /><linearGradient
   id="linearGradient6689"><stop
     style="stop-color:#40b2ff;stop-opacity:1;"
     offset="0"
     id="stop6691" /></linearGradient><linearGradient
   id="linearGradient4372"><stop
     style="stop-color:#dca900;stop-opacity:1;"
     offset="0"
     id="stop4374" /></linearGradient><linearGradient
   id="linearGradient4140"><stop
     style="stop-color:#000000;stop-opacity:1;"
     offset="0"
     id="stop4142" /><stop
     style="stop-color:#000000;stop-opacity:0;"
     offset="1"
     id="stop4144" /></linearGradient>
	
	
<pattern
   patternUnits="userSpaceOnUse"
   width="1985.5172"
   height="2039.1771"
   patternTransform="translate(1379.3671,-707.48634)"
   id="pattern6540"><g
     id="g910"
     transform="matrix(2.5270219,0,0,2.5270219,-93.476597,-92.266348)"><g
       id="layer2"
       style="display:inline"
       transform="translate(0,-201.9685)" /><g
       id="layer4"
       style="display:inline"
       transform="translate(0,-201.9685)"><path
         style="display:inline;fill:#41b2ff;fill-opacity:0.993939;stroke:none"
         d="m 428.92383,238.48047 c -1.6407,0.001 -3.28434,0.0133 -4.92969,0.0352 C 213.3893,241.31748 44.923886,414.30104 47.697266,624.90625 50.470837,835.51145 223.43348,1004.0009 434.03906,1001.2559 644.64516,998.51129 813.15822,825.5713 810.44141,614.96484 l -0.004,-0.20703 C 807.62877,405.79922 637.29194,238.34765 428.92383,238.48047 Z"
         id="path5453" /><path
         style="display:inline;fill:#5096c8;fill-opacity:1;fill-rule:evenodd;stroke:none;stroke-width:1px;stroke-linecap:butt;stroke-linejoin:miter;stroke-opacity:1"
         d="m 428.92383,238.48047 c -1.6407,0.001 -3.28434,0.0133 -4.92969,0.0352 -52.46973,0.69805 -102.32225,11.9617 -147.56445,31.73633 102.06833,17.60695 269.41958,73.73803 305.92383,252.72852 l 225.29296,143.55664 c 2.05882,-16.8816 3.02037,-34.09624 2.79493,-51.57227 l -0.004,-0.20703 C 807.62877,405.79922 637.29194,238.34765 428.92383,238.48047 Z"
         id="path5450" /><path
         style="display:inline;fill:#ffd086;fill-opacity:1;fill-rule:evenodd;stroke:none;stroke-width:1px;stroke-linecap:butt;stroke-linejoin:miter;stroke-opacity:1"
         d="M 585.16992,524.91211 C 447.41745,738.84015 285.93093,797.68142 93.347656,801.03711 158.66452,921.84083 287.20038,1003.1698 434.03906,1001.2559 607.56851,998.99446 752.51317,881.18488 796.65234,721.9668 c -2.6864,-6.57764 -6.20106,-13.62037 -10.8164,-21.13477 C 768.68987,677.03878 709.10478,568.47721 585.16992,524.91211 Z"
         id="path5447" /><path
         style="display:inline;fill:#270b0b;fill-opacity:0.993939;fill-rule:evenodd;stroke:none;stroke-width:1px;stroke-linecap:butt;stroke-linejoin:miter;stroke-opacity:1"
         d="m 586.25391,524.11523 c -21.57163,126.33825 -108.2801,230.35644 -87.66993,311.48633 26.06387,102.59778 -79.12567,125.91326 -164.61132,153.74024 31.95064,8.20311 65.502,12.3646 100.0664,11.9141 200.01324,-2.60657 362.05355,-158.7197 375.52149,-354.81645 -16.36318,-4.66228 -32.1351,-11.75072 -42.83789,-23.69336 -32.6877,-36.47436 -116.60579,-76.182 -180.46875,-98.63086 z"
         id="path5444" /><path
         style="display:inline;fill:#cd8a03;fill-opacity:0.993939;fill-rule:evenodd;stroke:none;stroke-width:1px;stroke-linecap:butt;stroke-linejoin:miter;stroke-opacity:1"
         d="m 584.99609,531.33008 c -26.42158,62.17296 -14.83089,66.98582 -37.91601,116.64258 -14.17092,30.48206 -17.33296,46.71697 -38.17188,103.35156 L 768.68555,793.625 c 0.9031,-1.76161 1.79166,-3.53131 2.66797,-5.30859 0.11251,-0.2282 0.22386,-0.4571 0.33593,-0.68555 0.74115,-1.5108 1.47173,-3.02889 2.19336,-4.55078 0.15212,-0.32079 0.30383,-0.64161 0.45508,-0.96289 0.81083,-1.72247 1.61278,-3.44918 2.39844,-5.18555 0.81608,-1.80361 1.61563,-3.61525 2.40429,-5.43359 0.10093,-0.23267 0.20031,-0.46631 0.30079,-0.69922 0.70062,-1.62429 1.38978,-3.25484 2.06836,-4.89063 0.0851,-0.20516 0.17108,-0.40989 0.25585,-0.61523 0.75277,-1.82369 1.49557,-3.65256 2.22071,-5.49024 0.74585,-1.89017 1.47506,-3.78866 2.1914,-5.69335 0.0436,-0.11584 0.0874,-0.23177 0.13086,-0.34766 0.64073,-1.70872 1.26799,-3.42437 1.88477,-5.14453 0.099,-0.27607 0.19849,-0.55177 0.29687,-0.82813 1.34147,-3.76877 2.62647,-7.56487 3.85157,-11.38672 0.008,-0.0255 0.0172,-0.0507 0.0254,-0.0762 0.0156,-0.0486 0.0294,-0.0979 0.0449,-0.14648 0.5996,-1.87449 1.18462,-3.75378 1.75586,-5.64063 0.0327,-0.10803 0.065,-0.21614 0.0977,-0.32422 1.1856,-3.92878 2.31202,-7.88466 3.37305,-11.86523 0.007,-0.0247 0.0129,-0.0495 0.0195,-0.0742 0.0125,-0.0468 0.0247,-0.0938 0.0371,-0.14062 0.52168,-1.96173 1.02656,-3.92847 1.51758,-5.90235 0.004,-0.0176 0.009,-0.0351 0.0137,-0.0527 0.003,-0.0124 0.007,-0.0247 0.01,-0.0371 1.01021,-4.06523 1.95547,-8.15656 2.83398,-12.27149 C 737.8798,634.95587 692.83855,571.9745 584.99609,531.33008 Z"
         id="path5441" /><path
         style="display:inline;fill:#402801;fill-opacity:0.993939;fill-rule:evenodd;stroke:none;stroke-width:1px;stroke-linecap:butt;stroke-linejoin:miter;stroke-opacity:1"
         d="m 555.26038,628.99723 -10.44593,16.98129 c -2.50357,15.42044 -19.92944,49.42676 -41.29492,110.74414 -29.11835,83.56757 66.82865,38.28295 73.67969,41.38281 64.6125,29.23493 132.91974,31.41069 179.60937,16.95117 16.45351,-27.56961 29.52066,-57.37807 38.64063,-88.8457 -281.04013,-47.3816 23.76693,-25.38857 -240.18884,-97.21371 z"
         id="path5438" /><path
         style="display:inline;fill:#fbbc38;fill-opacity:0.993939;fill-rule:evenodd;stroke:none;stroke-width:1px;stroke-linecap:butt;stroke-linejoin:miter;stroke-opacity:1"
         d="m 504.68359,865.61328 c -22.81492,71.32292 -112.93496,103.95373 -173.36328,123.0293 32.7455,8.66079 67.19526,13.07632 102.71875,12.61332 97.62636,-1.27228 186.20324,-39.11993 252.87696,-100.33402 -50.96384,-3.16822 -102.74996,-5.35269 -182.23243,-35.3086 z"
         id="path5435" /><path
         style="display:inline;fill:#fcc24d;fill-opacity:0.993939;fill-rule:evenodd;stroke:none;stroke-width:1px;stroke-linecap:butt;stroke-linejoin:miter;stroke-opacity:1"
         d="m 497.01953,776.20508 c -0.24187,19.10857 -15.69269,67.67827 4.86524,95.17578 13.90919,18.6044 105.68907,21.5062 170.4414,42.27734 37.49477,-31.08628 68.92344,-69.20103 92.28125,-112.29297 -88.15778,0.4392 -173.3807,10.34531 -267.58789,-25.16015 z"
         id="path5432" /></g><g
       id="layer8"
       style="display:inline"
       transform="translate(0,-201.9685)" /><g
       id="layer1"
       style="display:inline"
       transform="translate(0,-201.9685)"><path
         id="path5429"
         style="fill:none;fill-opacity:0.993939"
         d="M 822.70511,645.42908 A 392.85715,400 0 0 1 429.84796,1045.4291 392.85715,400 0 0 1 36.990814,645.42908 a 392.85715,400 0 0 1 392.857146,-400 392.85715,400 0 0 1 392.85715,400 z" /><path
         id="path5426"
         style="display:inline;opacity:1;fill:#fabb37;stroke-width:34.9;stroke-opacity:0.996078"
         d="m 504.26501,500.28717 h 23.49232 v 25.52723 h -23.49232 z" /><path
         id="path5423"
         style="display:inline;opacity:1;fill:#ffd086;stroke-width:34.9;stroke-opacity:0.996078"
         d="m 369.1745,415.42877 h 22.38395 v 24.41885 H 369.1745 Z" /><path
         id="path5420"
         style="display:inline;opacity:1;fill:#fabb37;stroke-width:34.9;stroke-opacity:0.996078"
         d="m 418.995,433.01941 h 30.52356 v 30.52356 H 418.995 Z" /><path
         id="path5417"
         style="display:inline;opacity:1;fill:#fbc14c;stroke-width:34.9;stroke-opacity:0.996078"
         d="m 417.33978,652.55573 h 46.80281 v 46.8028 h -46.80281 z" /><path
         id="path5414"
         style="display:inline;opacity:1;fill:#fabb37;stroke-width:34.9;stroke-opacity:0.996078"
         d="m 422.58551,475.89081 h 30.52357 v 30.52356 h -30.52357 z" /><path
         id="path5411"
         style="display:inline;opacity:1;fill:#cc8902;stroke-width:34.9;stroke-opacity:0.996078"
         d="m 472.61835,605.45685 h 24.41885 v 26.45376 h -24.41885 z" /><path
         id="path5408"
         style="display:inline;opacity:1;fill:#fabb37;stroke-width:34.9;stroke-opacity:0.996078"
         d="m 520.77234,557.90222 h 18.31414 v 18.31414 h -18.31414 z" /><path
         id="path5405"
         style="display:inline;opacity:1;fill:#fabb37;stroke-width:34.9;stroke-opacity:0.996078"
         d="m 454.78387,563.02789 h 30.52357 v 30.52357 h -30.52357 z" /><path
         id="path5402"
         style="display:inline;opacity:1;fill:#fbc14c;stroke-width:34.9;stroke-opacity:0.996078"
         d="m 335.34222,720.98743 h 38.6632 v 40.69809 h -38.6632 z" /><path
         id="path5399"
         style="display:inline;opacity:1;fill:#fbc14c;stroke-width:34.9;stroke-opacity:0.996078"
         d="m 371.97028,661.9754 h 26.45376 v 30.52357 h -26.45376 z" /><path
         id="path5396"
         style="display:inline;opacity:1;fill:#cc8902;stroke-width:34.9;stroke-opacity:0.996078"
         transform="scale(-1,1)"
         d="m -427.93024,610.08527 h 24.507 v 24.41885 h -24.507 z" /><path
         id="path5393"
         style="display:inline;opacity:1;fill:#ffd086;stroke-width:34.9;stroke-opacity:0.996078"
         d="M 480.41095,523.46906 H 500.76 V 545.853 h -20.34905 z" /><path
         id="path5390"
         style="display:inline;opacity:1;fill:#cc8902;stroke-width:34.9;stroke-opacity:0.996078"
         transform="scale(-1,1)"
         d="m -499.49951,466.31366 h 24.50699 v 24.41885 h -24.50699 z" /></g><g
       id="layer5"
       transform="translate(0,-201.9685)" /><g
       id="layer3"
       style="display:inline"
       transform="translate(0,-201.9685)"><path
         style="opacity:1;fill:none;fill-opacity:0.993939;stroke:#ffffff;stroke-width:42.1;stroke-linecap:round;stroke-miterlimit:4;stroke-dasharray:none;stroke-dashoffset:0;stroke-opacity:1"
         id="path6212"
         d="" /></g></g></pattern></defs><sodipodi:namedview
   id="namedview14"
   pagecolor="#505050"
   bordercolor="#eeeeee"
   borderopacity="1"
   inkscape:pageshadow="0"
   inkscape:pageopacity="0"
   inkscape:pagecheckerboard="0"
   showgrid="false"
   inkscape:zoom="0.31371222"
   inkscape:cx="951.509"
   inkscape:cy="589.71244"
   inkscape:window-width="1920"
   inkscape:window-height="1043"
   inkscape:window-x="0"
   inkscape:window-y="0"
   inkscape:window-maximized="1"
   inkscape:current-layer="g11347" />
<g
   id="Red_Heart">
</g>
<g
   id="g11347"
   transform="translate(-215.93366,442.75886)"><path
     id="path1851"
     style="opacity:1;fill:url(#pattern6898);stroke-width:7.2;stroke-miterlimit:4;stroke-dasharray:none;stroke:#000000;stroke-opacity:1"
     d="m 1522.9242,-415.02995 c -186.155,0 -318.605,108.71008 -394.33,257.28907 -79.1099,-155.06499 -214.14702,-255.64072 -411.04102,-255.63672 -13.0299,0 -26.346,0.44093 -39.92,1.33593 -195.828,12.908 -364.0537,130.0102 -417.0547,358.283205 -95.34,410.625995 355.9297,830.381395 868.01762,1238.730465 544.5951,-405.57807 969.4767,-863.9952 868.0137,-1259.074215 -49.498,-192.737995 -205.1613,-314.793455 -419.3145,-337.939455 -18.615,-2.012 -36.7201,-2.98828 -54.3711,-2.98828 z" /><g
     id="g9"
     transform="translate(-661.64064,-1443.09)">
		
		<g
   id="g914"
   transform="translate(913.35469,992.22008)"
   style="stroke:#000000;stroke-width:6.4;stroke-miterlimit:4;stroke-dasharray:none;stroke-opacity:1"><path
     style="color:#000000;fill:#ffffff;stroke:#000000;stroke-width:6.4;stroke-linecap:round;stroke-linejoin:round;stroke-miterlimit:4;stroke-dasharray:none;stroke-opacity:1"
     d="m 605.93555,443.05859 a 15.0015,15.0015 0 0 0 -19.40821,13.43555 L 559.125,927.82617 a 15.0015,15.0015 0 0 0 -0.22852,-0.0742 h -16.38476 l -22.5625,-71.66992 a 15.0015,15.0015 0 0 0 -28.53906,-0.24023 l -23.96875,71.91015 H 289.57422 a 15,15 0 0 0 -15,15 15,15 0 0 0 15,15 h 188.67773 a 15.0015,15.0015 0 0 0 14.23047,-10.25586 l 12.75195,-38.2539 11.9668,38.01367 a 15.0015,15.0015 0 0 0 14.30664,10.49609 h 16.43946 l 8.83593,27.61133 a 15.0015,15.0015 0 0 0 29.26172,-3.70117 l 15.91992,-273.83984 30.21289,488.43941 a 15.0015,15.0015 0 0 0 29.90235,0.5137 l 23.06836,-239.33788 52.12304,-1.21094 a 15.0015,15.0015 0 0 0 11.82422,-6.23242 c 0,0 12.25025,-16.14716 28.93946,-23.59766 8.3446,-3.72524 17.04435,-5.33919 27.00195,-2.74609 9.9576,2.5931 22.04594,9.7388 35.81445,26.94922 a 15.0015,15.0015 0 0 0 11.95508,5.62891 l 94.33789,-1.52344 a 15.0015,15.0015 0 0 0 13.66797,-9.38086 l 16.83594,-41.69141 12.87304,37.85938 a 15.0015,15.0015 0 0 0 12.44922,10.06836 l 15.7773,1.85742 8.0079,29.75 a 15.0015,15.0015 0 0 0 29.4492,-2.87305 l 19.125,-278.5332 30.0625,494.48236 a 15.0015,15.0015 0 0 0 29.9121,0.4239 l 21.5527,-241.39064 60.2774,2.46094 a 15.0015,15.0015 0 0 0 1.9629,-0.0488 c 8.2621,-0.74777 7.8807,-3.00209 8.7949,-3.78515 0.9142,-0.78307 1.3559,-1.26553 1.7988,-1.73438 0.8858,-0.93769 1.5973,-1.76596 2.4512,-2.74023 1.7078,-1.94855 3.835,-4.36451 6.4492,-7.01367 5.2284,-5.29833 12.3605,-11.34294 20.123,-15.07422 7.7626,-3.73129 15.6208,-5.36807 24.9903,-2.96485 9.3695,2.40323 21.181,9.33083 35.0039,26.31836 a 15.0015,15.0015 0 0 0 11.7637,5.53125 l 176.5039,-1.52148 a 15,15 0 0 0 14.8711,-15.12891 15,15 0 0 0 -15.1289,-14.86914 l -169.5645,1.46094 c -15.1185,-16.95405 -30.6058,-26.90209 -45.9961,-30.84961 -17.0307,-4.36827 -33.0076,-0.99233 -45.4414,4.98437 -12.4338,5.97671 -21.8594,14.33531 -28.4785,21.04297 -2.4448,2.47752 -4.0463,4.32334 -5.6563,6.13867 l -67.7832,-2.76562 a 15.0015,15.0015 0 0 0 -15.5508,13.6543 l -5.0449,56.49414 -31.9922,-526.24219 a 15.0015,15.0015 0 0 0 -29.9375,-0.11719 l -31.3105,456.02344 -14.0859,-1.6582 -22.82036,-67.11719 a 15.0015,15.0015 0 0 0 -28.10937,-0.78711 l -28.22852,69.90234 -77.32617,1.24805 c -15.19858,-17.25187 -31.05546,-27.40122 -46.79492,-31.5 -17.43107,-4.5393 -33.83535,-1.39985 -46.79297,4.38477 -17.61543,7.86398 -29.73802,20.10285 -36.02539,27.38867 l -58.63282,1.36328 a 15.0015,15.0015 0 0 0 -14.58203,13.55664 l -6.15234,63.82025 -33.93945,-548.6933 a 15.0015,15.0015 0 0 0 -10.53711,-13.38086 z m 603.81055,486.41797 c -0.038,0.0434 -0.1269,0.13727 -0.1641,0.17969 -0.3303,0.37694 -0.3932,0.44201 -0.6504,0.73242 0.1563,-0.30779 0.2408,-0.52429 0.8145,-0.91211 z"
     id="path10434" /><g
     id="circle7"
     style="stroke:#000000;stroke-width:6.4;stroke-miterlimit:4;stroke-dasharray:none;stroke-opacity:1"><path
       style="color:#000000;fill:#ffffff;stroke:#000000;stroke-width:6.4;stroke-miterlimit:4;stroke-dasharray:none;stroke-opacity:1"
       d="m 1532.425,938.40002 a 25.577999,25.577999 0 0 1 -25.578,25.578 25.577999,25.577999 0 0 1 -25.578,-25.578 25.577999,25.577999 0 0 1 25.578,-25.57799 25.577999,25.577999 0 0 1 25.578,25.57799 z"
       id="path10431" /><path
       style="color:#000000;fill:#ffffff;stroke:#000000;stroke-width:6.4;stroke-miterlimit:4;stroke-dasharray:none;stroke-opacity:1"
       d="m 1506.8477,912.32227 c -14.3966,0 -26.0782,11.68158 -26.0782,26.07812 0,14.39655 11.6816,26.07813 26.0782,26.07813 14.3965,0 26.0781,-11.68158 26.0781,-26.07813 0,-14.39654 -11.6816,-26.07812 -26.0781,-26.07812 z m 0,1 c 13.8561,0 25.0781,11.22202 25.0781,25.07812 0,13.85611 -11.222,25.07813 -25.0781,25.07813 -13.8561,0 -25.0782,-11.22202 -25.0782,-25.07813 0,-13.8561 11.2221,-25.07812 25.0782,-25.07812 z"
       id="path10428" /></g></g>
	</g></g>
</svg>
